%YAML 1.1
%TAG !u! tag:unity3d.com,2011:
--- !u!114 &11400000
MonoBehaviour:
  m_ObjectHideFlags: 0
  m_CorrespondingSourceObject: {fileID: 0}
  m_PrefabInstance: {fileID: 0}
  m_PrefabAsset: {fileID: 0}
  m_GameObject: {fileID: 0}
  m_Enabled: 1
  m_EditorHideFlags: 0
  m_Script: {fileID: 11500000, guid: a36927a5f0ea1644bae583a0c153c620, type: 3}
  m_Name: Default Parts Collection
  m_EditorClassIdentifier: 
  Parts:
  - {fileID: 5697764295375680894, guid: 18d66f215feee454ea7ea201253eb82c, type: 3}
  - {fileID: 114762690289614020, guid: 3db35f1e8110d3a4cb116a21c9f8892f, type: 3}
  - {fileID: 114611985091291736, guid: 545752a2a36d1a0409b0ae9d70bd8761, type: 3}
  - {fileID: 114869954950234796, guid: de58ba765006a7c4eae1d429bf0caf42, type: 3}
