%YAML 1.1
%TAG !u! tag:unity3d.com,2011:
--- !u!114 &11400000
MonoBehaviour:
  m_ObjectHideFlags: 0
  m_CorrespondingSourceObject: {fileID: 0}
  m_PrefabInternal: {fileID: 0}
  m_GameObject: {fileID: 0}
  m_Enabled: 1
  m_EditorHideFlags: 0
  m_Script: {fileID: 11500000, guid: 685956fc3b27b4648a1106849a878670, type: 3}
  m_Name: Example Blueprint
  m_EditorClassIdentifier: 
  Model:
    Prefabs:
    - Id: 1
      AppearanceIndex: 0
      Position:
        X: 0.011975288
        Y: -0.0000025629997
        Z: 15.725037
      Rotation:
        X: -0
        Y: 90
        Z: -0
      Scale:
        X: 1.0000005
        Y: 1
        Z: 1.0000005
    - Id: 1
      AppearanceIndex: 0
      Position:
        X: 0.011965416
        Y: -0.0000025629997
        Z: 19.72504
      Rotation:
        X: -0
        Y: 179.99983
        Z: -0
      Scale:
        X: 1.0000005
        Y: 1
        Z: 1.0000005
    - Id: 1
      AppearanceIndex: 0
      Position:
        X: -3.988027
        Y: -0.0000025629997
        Z: 15.725037
      Rotation:
        X: -0
        Y: 90
        Z: -0
      Scale:
        X: 1.000001
        Y: 1
        Z: 1.000001
    - Id: 1
      AppearanceIndex: 0
      Position:
        X: 4.0119777
        Y: -0.0000025629997
        Z: 15.725037
      Rotation:
        X: -0
        Y: 90
        Z: -0
      Scale:
        X: 1.000001
        Y: 1
        Z: 1.000001
    - Id: 2
      AppearanceIndex: 0
      Position:
        X: 4.0119734
        Y: -0.0000025629997
        Z: 17.725039
      Rotation:
        X: -0
        Y: 179.99983
        Z: -0
      Scale:
        X: 1.000001
        Y: 1
        Z: 1.000001
    - Id: 2
      AppearanceIndex: 0
      Position:
        X: 6.01198
        Y: -0.0000025629997
        Z: 15.725037
      Rotation:
        X: -0
        Y: 90
        Z: -0
      Scale:
        X: 1.0000014
        Y: 1
        Z: 1.0000014
    - Id: 2
      AppearanceIndex: 0
      Position:
        X: 0.011959393
        Y: -0.0000025629997
        Z: 21.72504
      Rotation:
        X: -0
        Y: 179.99983
        Z: -0
      Scale:
        X: 1.0000005
        Y: 1
        Z: 1.0000005
    - Id: 2
      AppearanceIndex: 0
      Position:
        X: 2.0119665
        Y: -0.0000025629997
        Z: 19.725052
      Rotation:
        X: 0
        Y: 269.99966
        Z: 0
      Scale:
        X: 1
        Y: 1
        Z: 1
    - Id: 2
      AppearanceIndex: 0
      Position:
        X: -1.9880356
        Y: -0.0000025629997
        Z: 19.725029
      Rotation:
        X: 0
        Y: 269.99966
        Z: 0
      Scale:
        X: 1
        Y: 1
        Z: 1
    - Id: 2
      AppearanceIndex: 0
      Position:
        X: -3.9880314
        Y: -0.0000025629997
        Z: 17.725039
      Rotation:
        X: -0
        Y: 179.99983
        Z: -0
      Scale:
        X: 1.000001
        Y: 1
        Z: 1.000001
    - Id: 2
      AppearanceIndex: 0
      Position:
        X: -5.9880295
        Y: -0.0000025629997
        Z: 15.725037
      Rotation:
        X: -0
        Y: 90
        Z: -0
      Scale:
        X: 1.0000014
        Y: 1
        Z: 1.0000014
    - Id: 4
      AppearanceIndex: 0
      Position:
        X: 0.011965416
        Y: -0.0000025629997
        Z: 19.72504
      Rotation:
        X: -0
        Y: -0.00017758492
        Z: 0
      Scale:
        X: 1.0000005
        Y: 1
        Z: 1.0000005
    - Id: 3
      AppearanceIndex: 0
      Position:
        X: 4.0119796
        Y: 3.9999974
        Z: 15.725037
      Rotation:
        X: -0
        Y: 179.99983
        Z: -0
      Scale:
        X: 1.000001
        Y: 1
        Z: 1.000001
    - Id: 3
      AppearanceIndex: 0
      Position:
        X: -3.9880254
        Y: 3.9999974
        Z: 15.725037
      Rotation:
        X: -0
        Y: 179.99983
        Z: -0
      Scale:
        X: 1.000001
        Y: 1
        Z: 1.000001
  Data: 1:0:(0.0120, 0.0000, 15.7250):(0.0000, 90.0000, 0.0000):(1.0000, 1.0000, 1.0000)|1:0:(0.0120,
    0.0000, 19.7250):(0.0000, 179.9998, 0.0000):(1.0000, 1.0000, 1.0000)|1:0:(-3.9880,
    0.0000, 15.7250):(0.0000, 90.0000, 0.0000):(1.0000, 1.0000, 1.0000)|1:0:(4.0120,
    0.0000, 15.7250):(0.0000, 90.0000, 0.0000):(1.0000, 1.0000, 1.0000)|2:0:(4.0120,
    0.0000, 17.7250):(0.0000, 179.9998, 0.0000):(1.0000, 1.0000, 1.0000)|2:0:(6.0120,
    0.0000, 15.7250):(0.0000, 90.0000, 0.0000):(1.0000, 1.0000, 1.0000)|2:0:(0.0120,
    0.0000, 21.7250):(0.0000, 179.9998, 0.0000):(1.0000, 1.0000, 1.0000)|2:0:(2.0120,
    0.0000, 19.7251):(0.0000, 269.9997, 0.0000):(1.0000, 1.0000, 1.0000)|2:0:(-1.9880,
    0.0000, 19.7250):(0.0000, 269.9997, 0.0000):(1.0000, 1.0000, 1.0000)|2:0:(-3.9880,
    0.0000, 17.7250):(0.0000, 179.9998, 0.0000):(1.0000, 1.0000, 1.0000)|2:0:(-5.9880,
    0.0000, 15.7250):(0.0000, 90.0000, 0.0000):(1.0000, 1.0000, 1.0000)|4:0:(0.0120,
    0.0000, 19.7250):(0.0000, -0.0002, 0.0000):(1.0000, 1.0000, 1.0000)|3:0:(4.0120,
    4.0000, 15.7250):(0.0000, 179.9998, 0.0000):(1.0000, 1.0000, 1.0000)|3:0:(-3.9880,
    4.0000, 15.7250):(0.0000, 179.9998, 0.0000):(1.0000, 1.0000, 1.0000)|
