%YAML 1.1
%TAG !u! tag:unity3d.com,2011:
--- !u!319 &101100000
AvatarMask:
  m_ObjectHideFlags: 0
  m_PrefabParentObject: {fileID: 0}
  m_PrefabInternal: {fileID: 0}
  m_Name: Arms
  m_Mask: 00000000000000000100000000000000000000000100000001000000010000000100000000000000000000000000000000000000
  m_Elements: []
